{
    "parent": "item/handheld",
    "textures": {
        "layer0": "item/iron_sword"
    },  
    "overrides": [
        { "predicate": { "custom_model_data": 701}, "model":"item/weapon/stalfos_sword_1"},
        { "predicate": { "custom_model_data": 702}, "model":"item/weapon/stalfos_sword_2"},
        { "predicate": { "custom_model_data": 703}, "model":"item/weapon/stalfos_sword_3"},
        { "predicate": { "custom_model_data": 704}, "model":"item/weapon/stalfos_sword_4"},
        { "predicate": { "custom_model_data": 705}, "model":"item/weapon/stalfos_sword_5"},
        { "predicate": { "custom_model_data": 706}, "model":"item/weapon/dinolfos_sword_1"},
        { "predicate": { "custom_model_data": 707}, "model":"item/weapon/dinolfos_sword_2"},
        { "predicate": { "custom_model_data": 708}, "model":"item/weapon/dinolfos_sword_3"},
        { "predicate": { "custom_model_data": 709}, "model":"item/weapon/dinolfos_sword_4"},
        { "predicate": { "custom_model_data": 710}, "model":"item/weapon/dinolfos_sword_5"},
        { "predicate": { "custom_model_data": 711}, "model":"item/weapon/dark_nut_sword_1"},
        { "predicate": { "custom_model_data": 712}, "model":"item/weapon/dark_nut_sword_2"},
        { "predicate": { "custom_model_data": 713}, "model":"item/weapon/lance_1"}
    ]
}
