{
	"parent": "item/generated",
	"textures": {
		"layer0": "item/weapon/dark-nut-sword-2"
	},
    "display": {
        "thirdperson_righthand": {
            "rotation": [ 0, 90, 50 ],
            "translation": [ 0, 6.5, 2.25 ],
            "scale": [ 1, 1, 1 ]
        },
        "thirdperson_lefthand": {
            "rotation": [ 0, -90, -50 ],
            "translation": [ 0, 6.5, 2.25 ],
            "scale": [ 1, 1, 1 ]
        },
        "firstperson_righthand": {
            "rotation": [ 0, 90, 40 ],
            "translation": [ 2, 4.25, 1 ],
            "scale": [ 0.95, 0.95, 0.95 ]
        },
        "firstperson_lefthand": {
            "rotation": [ 0, -90, -40 ],
            "translation": [ 2, 4.25, 1 ],
            "scale": [ 0.95, 0.95, 0.95 ]
        }
    }
}
